{
 "code": 200,
 "meta": {
  "pagination": {
   "total": 1213,
   "pages": 61,
   "page": 1,
   "limit": 20
  }
 },
 "data": [
  {
   "id": 1,
   "post_id": 2,
   "name": "Gotum Kaniyar",
   "email": "gotum_kaniyar@muller.io",
   "body": "Non nihil excepturi. Et autem numquam. Quis deserunt provident. Temporibus perspiciatis nemo.",
   "created_at": "2021-01-18T03:50:03.442+05:30",
   "updated_at": "2021-01-18T03:50:03.442+05:30"
  },
  {
   "id": 2,
   "post_id": 2,
   "name": "Shashi Devar",
   "email": "shashi_devar@schoen.biz",
   "body": "Id tempora libero. Blanditiis voluptatem non. Quaerat maiores laboriosam.",
   "created_at": "2021-01-18T03:50:03.446+05:30",
   "updated_at": "2021-01-18T03:50:03.446+05:30"
  },
  {
   "id": 3,
   "post_id": 4,
   "name": "Dwaipayan Nair",
   "email": "nair_dwaipayan@goyette.info",
   "body": "Eaque est repellat. Qui qui quia.",
   "created_at": "2021-01-18T03:50:03.484+05:30",
   "updated_at": "2021-01-18T03:50:03.484+05:30"
  },
  {
   "id": 4,
   "post_id": 5,
   "name": "Jai Tandon",
   "email": "tandon_jai@braun-okuneva.info",
   "body": "Est dolores nostrum. Quo dolores sit. Quas explicabo atque. Voluptatem doloribus eius.",
   "created_at": "2021-01-18T03:50:03.493+05:30",
   "updated_at": "2021-01-18T03:50:03.493+05:30"
  },
  {
   "id": 5,
   "post_id": 5,
   "name": "Achyut Chopra JD",
   "email": "achyut_jd_chopra@koss.name",
   "body": "Dolorem sunt soluta. Labore libero et.",
   "created_at": "2021-01-18T03:50:03.495+05:30",
   "updated_at": "2021-01-18T03:50:03.495+05:30"
  },
  {
   "id": 7,
   "post_id": 6,
   "name": "Agrata Kocchar",
   "email": "kocchar_agrata@price.io",
   "body": "Iure autem id. Eum sunt hic. Sit libero debitis.",
   "created_at": "2021-01-18T03:50:03.542+05:30",
   "updated_at": "2021-01-18T03:50:03.542+05:30"
  },
  {
   "id": 8,
   "post_id": 7,
   "name": "Bhoj Mehra",
   "email": "mehra_bhoj@conroy-kunze.org",
   "body": "Quo dignissimos ipsam.",
   "created_at": "2021-01-18T03:50:03.552+05:30",
   "updated_at": "2021-01-18T03:50:03.552+05:30"
  },
  {
   "id": 9,
   "post_id": 7,
   "name": "Acharyasuta Ahluwalia",
   "email": "ahluwalia_acharyasuta@schamberger.biz",
   "body": "Blanditiis consequatur placeat. Et ex eum.",
   "created_at": "2021-01-18T03:50:03.555+05:30",
   "updated_at": "2021-01-18T03:50:03.555+05:30"
  },
  {
   "id": 10,
   "post_id": 9,
   "name": "Dhatri Nehru",
   "email": "nehru_dhatri@morar.co",
   "body": "Nihil quis dolor. Fuga autem ut. Ut recusandae doloremque. Pariatur est non.",
   "created_at": "2021-01-18T03:50:03.597+05:30",
   "updated_at": "2021-01-18T03:50:03.597+05:30"
  },
  {
   "id": 11,
   "post_id": 9,
   "name": "Chandni Dutta",
   "email": "dutta_chandni@kshlerin.name",
   "body": "Animi molestiae modi. Consequatur velit asperiores.",
   "created_at": "2021-01-18T03:50:03.6+05:30",
   "updated_at": "2021-01-18T03:50:03.6+05:30"
  },
  {
   "id": 12,
   "post_id": 10,
   "name": "Bandhu Panicker",
   "email": "panicker_bandhu@powlowski.com",
   "body": "A asperiores illo. Expedita et voluptate. Porro nemo earum.",
   "created_at": "2021-01-18T03:50:03.611+05:30",
   "updated_at": "2021-01-18T03:50:03.611+05:30"
  },
  {
   "id": 13,
   "post_id": 10,
   "name": "Agnimitra Ahluwalia",
   "email": "agnimitra_ahluwalia@goodwin.com",
   "body": "Et rerum consequatur. Cum autem natus.",
   "created_at": "2021-01-18T03:50:03.614+05:30",
   "updated_at": "2021-01-18T03:50:03.614+05:30"
  },
  {
   "id": 14,
   "post_id": 11,
   "name": "Menaka Khanna",
   "email": "menaka_khanna@quitzon.info",
   "body": "Itaque corrupti et.",
   "created_at": "2021-01-18T03:50:03.623+05:30",
   "updated_at": "2021-01-18T03:50:03.623+05:30"
  },
  {
   "id": 15,
   "post_id": 12,
   "name": "Gita Bharadwaj Ret.",
   "email": "gita_bharadwaj_ret@damore-prosacco.com",
   "body": "Provident est distinctio.",
   "created_at": "2021-01-18T03:50:03.64+05:30",
   "updated_at": "2021-01-18T03:50:03.64+05:30"
  },
  {
   "id": 16,
   "post_id": 13,
   "name": "Kamla Chopra MD",
   "email": "kamla_chopra_md@mann.net",
   "body": "Atque necessitatibus recusandae.",
   "created_at": "2021-01-18T03:50:03.658+05:30",
   "updated_at": "2021-01-18T03:50:03.658+05:30"
  },
  {
   "id": 17,
   "post_id": 13,
   "name": "Miss Divaakar Joshi",
   "email": "miss_divaakar_joshi@kub-braun.name",
   "body": "Saepe accusantium quasi.",
   "created_at": "2021-01-18T03:50:03.66+05:30",
   "updated_at": "2021-01-18T03:50:03.66+05:30"
  },
  {
   "id": 18,
   "post_id": 14,
   "name": "Suma Pandey DO",
   "email": "do_pandey_suma@bauch.net",
   "body": "Quidem assumenda harum. Tempora minus beatae. Fugiat iste quod.",
   "created_at": "2021-01-18T03:50:03.675+05:30",
   "updated_at": "2021-01-18T03:50:03.675+05:30"
  },
  {
   "id": 19,
   "post_id": 15,
   "name": "Ganaka Deshpande",
   "email": "ganaka_deshpande@dooley.co",
   "body": "Eum omnis perferendis.",
   "created_at": "2021-01-18T03:50:03.696+05:30",
   "updated_at": "2021-01-18T03:50:03.696+05:30"
  },
  {
   "id": 20,
   "post_id": 15,
   "name": "Ravi Khatri",
   "email": "khatri_ravi@kassulke.org",
   "body": "Rem in est. Facere dolorem velit. Et error necessitatibus. Animi facere nemo.",
   "created_at": "2021-01-18T03:50:03.698+05:30",
   "updated_at": "2021-01-18T03:50:03.698+05:30"
  },
  {
   "id": 21,
   "post_id": 16,
   "name": "Harinarayan Prajapat",
   "email": "harinarayan_prajapat@gutkowski.net",
   "body": "Et eum qui. Ut maiores culpa. Nostrum rerum ratione. Delectus qui aut.",
   "created_at": "2021-01-18T03:50:03.706+05:30",
   "updated_at": "2021-01-18T03:50:03.706+05:30"
  }
 ]
}