{
 "code": 200,
 "meta": {
  "pagination": {
   "total": 1227,
   "pages": 62,
   "page": 1,
   "limit": 20
  }
 },
 "data": [
  {
   "id": 1,
   "user_id": 1,
   "title": "Colloco utrum depromo curiositas accommodo abutor attero.",
   "body": "Atavus comis cultura. Aequitas volubilis clam. Decretum cumque pectus. Usitas defigo officiis. Deficio volutabrum vilicus. Voluptas trucido verecundia. Necessitatibus strenuus ater. Voluptatum alias rerum. Villa accommodo calculus. Combibo auxilium ut. Sonitus vitae magnam. Aer unde denique. Sopor abbas tripudio. Vito defluo qui. Demergo xiphias corrigo.",
   "created_at": "2021-01-18T03:50:03.424+05:30",
   "updated_at": "2021-01-18T03:50:03.424+05:30"
  },
  {
   "id": 2,
   "user_id": 1,
   "title": "Aequitas solutio somnus sed sapiente et necessitatibus calco vigilo suasoria crustulum.",
   "body": "Tandem verumtamen considero. Carbo ait delibero. Cubicularis tolero uxor. Vinitor vinco velit. Animi vulpes astrum. Adeo ustilo armarium. Annus arceo torrens. Sed culpo utique. Traho inflammatio campana. Calamitas stillicidium conspergo. Aliquam absque ante. Annus omnis acsi. Arcus voro amiculum. Caries avoco comprehendo. Unde barba agnosco. Sed reiciendis tabula. Cupiditate adversus facilis. Taceo ad deorsum. Cibo audax cavus. Suscipio qui vitae. Cotidie cohors enim. At synagoga annus. Repellat pauper deprecator. Creptio adfectus qui. Maiores et viduata. Crinis congregatio creber. Explicabo nisi administratio. Autem attonbitus sint. Thesaurus ut adipisci.",
   "created_at": "2021-01-18T03:50:03.432+05:30",
   "updated_at": "2021-01-18T03:50:03.432+05:30"
  },
  {
   "id": 3,
   "user_id": 2,
   "title": "Apto recusandae soleo degusto crastinus voveo crur sol beatus.",
   "body": "Crudelis blanditiis contra. Virtus beneficium cogo. Doloremque quo canto. Animadverto ducimus paulatim. Voluptatem villa amiculum. Apud pauper contra. Varietas aequitas sodalitas. Copiose calcar voluptate. Curtus vester cursus. Ciminatio ex coniecto. Custodia venia appono. Eveniet suggero adimpleo. Caries qui et. Trepide eaque temptatio. Utpote alveus adhaero. A auditor antiquus. Territo studio supra. Colligo defigo volup. Auctus assumenda subvenio. Apud venia ater. Error chirographum qui. Ut usque vacuus. Claudeo vehemens usus. Volva adhaero usque. Voluptas auctor est. Assentator civitas pel. Custodia utpote terminatio. Tertius et cribro.",
   "created_at": "2021-01-18T03:50:03.469+05:30",
   "updated_at": "2021-01-18T03:50:03.469+05:30"
  },
  {
   "id": 4,
   "user_id": 3,
   "title": "Aspernatur qui valetudo adulatio annus vacuus ocer asperiores adhaero bellum tendo.",
   "body": "Clam volaticus arbor. Sui ipsa et. Voluntarius viscus derelinquo. Deduco fugit spiritus. Decerno sopor utilis. Verus ante depono. Comparo congregatio velum. Voluntarius bos eligendi. Iusto attero volubilis. Angustus velit qui. Synagoga armarium strenuus. Conservo celer campana. Vester bonus patria. Dignissimos benevolentia dolorum. Aureus crudelis concido. Thorax socius adflicto. Pectus carcer defluo. Audeo thesaurus vulgus. Deleniti necessitatibus vinitor. Adeo nihil solum. Testimonium tergum apto. Autem umerus celo. Coerceo voluptatem umbra. Tabernus minima et. Suspendo animi ventosus. Decretum avaritia bonus. Vulgaris tamisium cum. Adstringo campana deinde.",
   "created_at": "2021-01-18T03:50:03.481+05:30",
   "updated_at": "2021-01-18T03:50:03.481+05:30"
  },
  {
   "id": 5,
   "user_id": 3,
   "title": "Suppellex aetas temporibus acsi commodi cruciamentum cursus capto armarium vulticulus tepesco ut tabula amplus.",
   "body": "Arbitro bellum terminatio. Cubicularis clarus coruscus. Iure xiphias optio. Et torqueo iste. Est aeneus benigne. Canonicus crux defero. Una deficio vicinus. Cultellus vivo solio. Quod angustus cubo. Illo temporibus qui. Sopor trans vel. Catena tamen calcar. Auxilium vir tremo. Arbustum terebro alo. Amicitia amplitudo defluo. Pecto veritatis summa. Pectus depulso comprehendo. Depraedor vinculum civis. Auris delectatio adfectus. Cumque stabilis umerus.",
   "created_at": "2021-01-18T03:50:03.489+05:30",
   "updated_at": "2021-01-18T03:50:03.489+05:30"
  },
  {
   "id": 6,
   "user_id": 6,
   "title": "Comburo cerno chirographum a antepono solitudo abbas alioqui amplexus.",
   "body": "Ubi temptatio volup. Termes deprecator tepesco. Advenio natus earum. Subito tredecim clementia. Repellendus speculum quia. Quidem totam vomica. Creo cauda administratio. Veniam truculenter eveniet. Tempore talis aut. Cito umquam dolores. Tabernus dolorum aveho. Antea sit colligo. Viridis verbum tamisium. Auctor charisma tempore. Ex repudiandae admoneo. Tandem callide vado. Dolor paulatim decens. Dolorem temporibus vir. Cinis facilis arca. Vigilo et acer. Ipsa cibo despirmatio. Tolero sub adduco. Cribro addo esse. Arca adflicto coma. Et dolorem curvus. Cado iusto annus. Aequus pax adipisci. Cruciamentum virtus dapifer. Cupio vulgo abbas.",
   "created_at": "2021-01-18T03:50:03.535+05:30",
   "updated_at": "2021-01-18T03:50:03.535+05:30"
  },
  {
   "id": 7,
   "user_id": 6,
   "title": "Desipio fugit sophismata approbo velut delectatio vivo civitas thema abeo deprimo pax despirmatio campana careo quidem stips.",
   "body": "Triumphus creator debeo. Quo xiphias conduco. Atrox videlicet tamen. Summopere alter vel. Sufficio voluptas temporibus. Delibero stips consectetur. Cedo beatus tenuis. Torrens qui enim. Facere delicate aegre. Stips demergo apostolus. Comedo veritatis bestia. Theologus spoliatio praesentium. Nulla reprehenderit cernuus. Socius commodo tremo. Aro colo tristis. Adultus et arx. Autem adicio doloremque. Dolorem angelus casso. Aliquam ea velit. Derelinquo tabula accommodo. Vis cur contigo. Video absorbeo audentia. Aliquam capto arbustum. Vestigium canonicus commodi. Vetus atavus arca. Demonstro atrox in.",
   "created_at": "2021-01-18T03:50:03.549+05:30",
   "updated_at": "2021-01-18T03:50:03.549+05:30"
  },
  {
   "id": 8,
   "user_id": 7,
   "title": "Attollo abundans creber decimus cedo vulariter colligo angustus cometes in corrumpo minima amiculum pel.",
   "body": "Copia qui spes. Statua carpo verto. Territo deprecator est. Ciminatio xiphias consequatur. Appono atque arx. Subito iusto sponte. Appello utilis sophismata. Dedecor utpote sit. Asper repudiandae amissio. Cognatus caritas ultio. Benevolentia ulciscor sed. Harum varius conitor. Tantum unus taedium. Autem contego vito. Atqui curtus delectus. Appositus provident deinde. Tantum avarus succedo. Nulla cubo vociferor. Summopere vere deduco. Quasi omnis celer. Angustus copiose vero. Vos suppono quaerat. Ultio ante defetiscor. Ustilo varius demoror. Comburo umbra benevolentia.",
   "created_at": "2021-01-18T03:50:03.577+05:30",
   "updated_at": "2021-01-18T03:50:03.577+05:30"
  },
  {
   "id": 9,
   "user_id": 8,
   "title": "Officia contabesco error culpa alveus curvus est turba verus absconditus aut claudeo clibanus tunc crustulum verbum sonitus vobis.",
   "body": "Dolores dolor fuga. Aeternus venio creator. Vinculum umerus arcus. Adipisci dolore approbo. Cum absorbeo a. Decens adeo uter. Xiphias correptius spargo. Comitatus templum officiis. Torrens bellum ventus. Conitor ambitus depulso. Vinco approbo quidem. Qui quis praesentium. Voveo deripio qui. Coerceo decens caecus. Ultio reiciendis abduco. Ut molestiae desolo. Nemo non denuo. Tamisium adinventitias necessitatibus. Caterva aperiam verto. Velum absque quis. Voco curto copia. Arguo est architecto. Cunctatio vestrum correptius. Caveo cur error. Verumtamen thesis aveho. Ut occaecati tum. Consequuntur thesaurus agnosco. Concedo censura subnecto.",
   "created_at": "2021-01-18T03:50:03.594+05:30",
   "updated_at": "2021-01-18T03:50:03.594+05:30"
  },
  {
   "id": 10,
   "user_id": 9,
   "title": "Vestigium apto autem aestas circumvenio adipisci vorax virgo patior tabula venustas carus crastinus qui peccatus corrigo umquam creber.",
   "body": "Taceo attero ater. Cunae utor careo. Esse deprimo ciminatio. Carbo cultura aggero. Civis adicio deficio. Desparatus adeptio cimentarius. Adopto praesentium vociferor. Cui tabgo conduco. Centum vicissitudo theca. Laborum vapulus consectetur. Et pecunia argentum. Adeo sono conventus. Carmen bardus strues. Verus tametsi illo. Arcus alveus sulum. Abeo theologus capillus. Aro vociferor deprecator.",
   "created_at": "2021-01-18T03:50:03.608+05:30",
   "updated_at": "2021-01-18T03:50:03.608+05:30"
  },
  {
   "id": 11,
   "user_id": 9,
   "title": "Decerno assentator sit arca comitatus aptus dedecor sit aut ultra tamdiu cena.",
   "body": "Cunae demens paulatim. Aspernatur cito aestus. Amicitia voluptas creptio. Aduro vestigium sufficio. Umbra cursim dolorem. Ut eum curatio. Clam velociter apparatus. Coadunatio ultio atqui. Corrumpo laudantium debitis. Vulpes adeo adicio. Apostolus bonus desparatus. Peior circumvenio adnuo. Ratione tabernus depopulo. Et mollitia depulso. Fugiat maxime unde. Consequatur approbo voluptates. Pecto autem virtus. Vinum confido sol. Curso et arx. Conor vilitas recusandae. Demonstro solus tendo. Utrimque comparo uberrime. Antea convoco abstergo. Pariatur et constans. Veritas cognomen ars. Abutor adficio curo. Asperiores aureus compono. Solum utique praesentium.",
   "created_at": "2021-01-18T03:50:03.62+05:30",
   "updated_at": "2021-01-18T03:50:03.62+05:30"
  },
  {
   "id": 12,
   "user_id": 10,
   "title": "Defleo adinventitias voco aestus aut ambitus atque tempus sodalitas abduco auris.",
   "body": "Et ultio quae. Nihil civis soleo. Subiungo causa vestigium. Caelum textor aequitas. Deputo summa vis. Nisi vulgus tergo. Sopor deripio triumphus. Demulceo hic spiritus. Quia ut bardus. Possimus fuga voluptates. Vetus vesica depromo. Amplus vero aequus. Antepono capio ab. Velut arcesso suffoco. Tum attonbitus talio. Et statim accusantium. Cunabula deprecator trans. Comparo despecto beneficium. Nobis virgo delectus. Voveo cursus in. Voluptates canis ventus. Crudelis aut vinitor. Vomer ambulo tabesco. Quasi subiungo tametsi. Dens suspendo appello.",
   "created_at": "2021-01-18T03:50:03.638+05:30",
   "updated_at": "2021-01-18T03:50:03.638+05:30"
  },
  {
   "id": 13,
   "user_id": 12,
   "title": "Voveo sonitus turba conturbo balbus consuasor sordeo attonbitus.",
   "body": "Consectetur suffragium arcesso. Circumvenio crur curto. Capillus tenax ipsam. Tepesco ter tamisium. Autus turba bonus. Degusto neque theatrum. Sollers arto sapiente. Possimus vilicus considero. Recusandae officia praesentium. Tenax vultuosus solvo. Ciminatio valetudo unus. Undique ulciscor turpis. Defluo et sit. Versus aliquid arbitro. Cibus exercitationem pel. Utor summa concedo. Consectetur cognomen vita. Deludo desipio comminor. Adduco terror summisse. Cunabula studio depulso. Expedita viscus cum. Labore vilis videlicet. Nisi coadunatio causa. Vapulus tamen conventus. Quis delego degusto.",
   "created_at": "2021-01-18T03:50:03.655+05:30",
   "updated_at": "2021-01-18T03:50:03.655+05:30"
  },
  {
   "id": 14,
   "user_id": 13,
   "title": "Cinis et quas volaticus amo nesciunt placeat sed vado omnis acies.",
   "body": "Utrimque magni libero. Esse adduco aut. Sed pecto stillicidium. Una trepide bardus. Tristis tenetur subseco. Campana aureus appello. Stella veritas paulatim. Surculus conatus ulciscor. Deleo natus odio. Laboriosam corrigo solus. Cavus adhuc somnus. Tego adamo ventito. Acer vir thermae. Blanditiis velociter territo. Aro capio terreo.",
   "created_at": "2021-01-18T03:50:03.672+05:30",
   "updated_at": "2021-01-18T03:50:03.672+05:30"
  },
  {
   "id": 15,
   "user_id": 15,
   "title": "Cauda aspicio tempora enim surculus arx sub consequatur cunae ter ultio adsum voluptatum voluptas placeat celebrer accusator aggero textor.",
   "body": "Tertius vigilo arguo. Ut despecto arceo. Nostrum suscipit aperte. Aeger vis aeneus. Civitas ter dolorem. Doloribus depopulo tenax. Officiis vulgo expedita. Vociferor quam odit. Thermae absum nihil. Comminor caterva consectetur. Accusator tam accommodo. Tertius calculus nisi. Alioqui ventito arbustum. Acies perspiciatis aequitas. Et calculus sui. Laboriosam molestiae bestia. Vel tolero adeptio. Capillus pectus caput. Debilito sit cotidie. Tyrannus sperno avoco. Celer appositus fuga. Spargo cohors adeptio. Error thymum quia. Summa triduana qui. Abutor vespillo timidus.",
   "created_at": "2021-01-18T03:50:03.693+05:30",
   "updated_at": "2021-01-18T03:50:03.693+05:30"
  },
  {
   "id": 16,
   "user_id": 15,
   "title": "Caterva conscendo caecus depereo cupio depulso ea denuncio.",
   "body": "Nemo casus texo. Coniecto sollicito quis. Verto ratione provident. Crastinus amo confero. Careo amo verecundia. Ipsam carus sonitus. Urbanus dapifer ad. Sol sodalitas dolorem. Volutabrum sumo sit. Despecto deprimo clementia. Adulatio suffragium speculum. Quo tempore non. Vinco admoneo corrumpo. Peccatus coerceo concedo. Creator conscendo calcar. Titulus ullus nam.",
   "created_at": "2021-01-18T03:50:03.703+05:30",
   "updated_at": "2021-01-18T03:50:03.703+05:30"
  },
  {
   "id": 17,
   "user_id": 16,
   "title": "Subseco voluptate qui vulgus utpote cervus dolore.",
   "body": "Usus caelum caritas. Volaticus contra verto. Laborum fugiat deduco. Vae contigo comptus. Commemoro coniuratio decipio. Amaritudo abundans temeritas. Comedo votum dedecor. Vito verecundia aestus. Creta patruus adulescens. Defluo coniecto depopulo. Nesciunt ut adulescens. Cimentarius amaritudo absens. Turpis attollo vacuus. Aut ambulo auctor. Acerbitas cervus tersus. Vir cogito decretum. Appono videlicet amet. Minima cras audeo. Veritatis adhaero vulpes. Sol bellicus vinco. Ad provident est. Doloribus non aliqua. Aurum demo volaticus. Attollo truculenter volup. Praesentium corroboro complectus. Molestiae ubi cum. Crebro voluptate id. Paulatim bellum utilis. Suffoco atrox conduco.",
   "created_at": "2021-01-18T03:50:03.722+05:30",
   "updated_at": "2021-01-18T03:50:03.722+05:30"
  },
  {
   "id": 32,
   "user_id": 28,
   "title": "Subnecto tamquam dicta correptius cuius amo victoria valens voluptates supellex cado officia.",
   "body": "Absum denique decumbo. Animadverto ipsa audeo. Speculum cunabula tepidus. Eveniet vilitas itaque. Subnecto consectetur autem. Umbra veritas voveo. Solium arma recusandae. Aperte curvo trucido. Temeritas nulla suffoco. Astrum caste spiculum. Sufficio attollo solium. Addo tabula thema. Venia vacuus caries. Turbo pax ulterius. Uter deleniti tremo. Numquam benigne volva. Acies adhuc animus. Amaritudo tego tyrannus. Deprimo sapiente vel. Amet capillus laudantium. Conor autem bellicus. Vomica subseco reprehenderit. Illo velit tergeo. Comis utroque aiunt.",
   "created_at": "2021-01-18T03:50:03.973+05:30",
   "updated_at": "2021-01-18T03:50:03.973+05:30"
  },
  {
   "id": 33,
   "user_id": 28,
   "title": "Nulla administratio curiositas spoliatio aqua nihil tondeo tumultus iure terminatio.",
   "body": "Dapifer stipes delibero. Cunae vitae absque. Comitatus peccatus pecus. Aeger defluo thesaurus. Amita subvenio accommodo. Cogo cruciamentum patruus. Adiuvo eos aufero. Ut subseco animus. Temperantia adversus civis. Est aggredior tenetur. Infit animi demo. Derelinquo aduro alioqui. Triginta deprimo suus. Summisse autem vomica. Summa defigo reiciendis. Baiulus aiunt compono.",
   "created_at": "2021-01-18T03:50:03.983+05:30",
   "updated_at": "2021-01-18T03:50:03.983+05:30"
  },
  {
   "id": 34,
   "user_id": 29,
   "title": "Cubo canto crinis quod capillus voluntarius voro fugiat velociter adicio rerum tempore et.",
   "body": "Aestivus atrocitas adimpleo. Aptus validus et. Defleo cuppedia adsum. Tremo clarus utroque. Utrimque aro est. Aufero validus accendo. Volubilis est dicta. Absorbeo tot valeo. Accendo vita atrox. Apparatus tribuo defero. Vorax abduco sursum. Benevolentia volaticus volo. Autus ocer utique. Armo viriliter alo. Sit approbo depereo. Voluntarius amaritudo tempore. Angelus conturbo molestiae. Et bene campana. Theologus vetus vulgaris. Congregatio tamquam desparatus. Absens cinis caelum. Cunabula vitiosus tametsi. Aut verecundia amitto.",
   "created_at": "2021-01-18T03:50:03.994+05:30",
   "updated_at": "2021-01-18T03:50:03.994+05:30"
  }
 ]
}